/MLP Library_working/Wheeler_1895-1900_Canadian Irrigation Survey/1898_/Stations/B South/Field Notes/FN_BSouth_1.jpg,Y,29,FieldNote,
/MLP Library_working/Wheeler_1895-1900_Canadian Irrigation Survey/1898_/Stations/B South/Field Notes/FN_BSouth_2.jpg,Y,30,FieldNote,
/MLP Library_working/Wheeler_1895-1900_Canadian Irrigation Survey/1898_/Stations/B South/Field Notes/TranscribedFN_BSouth.pdf,Y,31,FieldNote,
/MLP Library_working/Wheeler_1895-1900_Canadian Irrigation Survey/1898_/Stations/B South/Image Variants/Original Master - jpgs/WHE1898_10-6-W-98.jpg,Y,192,CaptureImage,
/MLP Library_working/Wheeler_1895-1900_Canadian Irrigation Survey/1898_/Stations/B South/Image Variants/Original Master - jpgs/WHE1898_7-6-W-98.jpg,Y,289,CaptureImage,
/MLP Library_working/Wheeler_1895-1900_Canadian Irrigation Survey/1898_/Stations/B South/Image Variants/Original Master - jpgs/WHE1898_8-6-W-98.jpg,Y,178,CaptureImage,
/MLP Library_working/Wheeler_1895-1900_Canadian Irrigation Survey/1898_/Stations/B South/Image Variants/Original Master - jpgs/WHE1898_9-6-W-98.jpg,Y,185,CaptureImage,
/MLP Library_working/Wheeler_1895-1900_Canadian Irrigation Survey/1898_/Stations/B South/Location Photos/LC2_DSCF0699.JPG,Y,35,LocationImage,
/MLP Library_working/Wheeler_1895-1900_Canadian Irrigation Survey/1898_/Stations/B South/Location Photos/LC2_DSCF0700.JPG,Y,36,LocationImage,
/MLP Library_working/Wheeler_1895-1900_Canadian Irrigation Survey/1898_/Stations/B South/Location Photos/LC2_DSCF0701.JPG,Y,39,LocationImage,
/MLP Library_working/Wheeler_1895-1900_Canadian Irrigation Survey/1898_/Stations/B South/Location Photos/LC2_DSCF0702.JPG,Y,38,LocationImage,
/MLP Library_working/Wheeler_1895-1900_Canadian Irrigation Survey/1898_/Stations/B South/note.txt,Y,11,MetadataFile,
/MLP Library_working/Wheeler_1895-1900_Canadian Irrigation Survey/1898_/Stations/B South/Original Gridded Images/WHE1898_10-6-W-98.jpg,Y,193,CaptureImage,
/MLP Library_working/Wheeler_1895-1900_Canadian Irrigation Survey/1898_/Stations/B South/Original Gridded Images/WHE1898_7-6-W-98.jpg,Y,172,CaptureImage,
/MLP Library_working/Wheeler_1895-1900_Canadian Irrigation Survey/1898_/Stations/B South/Original Gridded Images/WHE1898_8-6-W-98.jpg,Y,179,CaptureImage,
/MLP Library_working/Wheeler_1895-1900_Canadian Irrigation Survey/1898_/Stations/B South/Original Gridded Images/WHE1898_9-6-W-98.jpg,Y,186,CaptureImage,
/MLP Library_working/Wheeler_1895-1900_Canadian Irrigation Survey/1898_/Stations/B South/Original Masters/old_WHE1898_10-6-W-98.tif,N,,,"
old_ files will not be automatically imported. Make sure to check that original exists before deleting"
/MLP Library_working/Wheeler_1895-1900_Canadian Irrigation Survey/1898_/Stations/B South/Original Masters/old_WHE1898_7-6-W-98.tif,N,,,"
old_ files will not be automatically imported. Make sure to check that original exists before deleting"
/MLP Library_working/Wheeler_1895-1900_Canadian Irrigation Survey/1898_/Stations/B South/Original Masters/WHE1898_10-6-W-98.tif,Y,194,CaptureImage,
/MLP Library_working/Wheeler_1895-1900_Canadian Irrigation Survey/1898_/Stations/B South/Original Masters/WHE1898_7-6-W-98.tif,Y,173,CaptureImage,
/MLP Library_working/Wheeler_1895-1900_Canadian Irrigation Survey/1898_/Stations/B South/Original Masters/WHE1898_8-6-W-98.tif,Y,180,CaptureImage,
/MLP Library_working/Wheeler_1895-1900_Canadian Irrigation Survey/1898_/Stations/B South/Original Masters/WHE1898_9-6-W-98.tif,Y,187,CaptureImage,
/MLP Library_working/Wheeler_1895-1900_Canadian Irrigation Survey/1898_/Stations/B South/Original Scans/WHE1898_10-6-W-98.tif,Y,195,CaptureImage,
/MLP Library_working/Wheeler_1895-1900_Canadian Irrigation Survey/1898_/Stations/B South/Original Scans/WHE1898_7-6-W-98.tif,Y,174,CaptureImage,
/MLP Library_working/Wheeler_1895-1900_Canadian Irrigation Survey/1898_/Stations/B South/Original Scans/WHE1898_8-6-W-98.tif,Y,181,CaptureImage,
/MLP Library_working/Wheeler_1895-1900_Canadian Irrigation Survey/1898_/Stations/B South/Original Scans/WHE1898_9-6-W-98.tif,Y,188,CaptureImage,
/MLP Library_working/Wheeler_1895-1900_Canadian Irrigation Survey/1898_/Stations/B South/Repeat 3FRs/HB1_A0003276.3FR,Y,182,CaptureImage,
/MLP Library_working/Wheeler_1895-1900_Canadian Irrigation Survey/1898_/Stations/B South/Repeat 3FRs/HB1_A0003277.3FR,Y,189,CaptureImage,
/MLP Library_working/Wheeler_1895-1900_Canadian Irrigation Survey/1898_/Stations/B South/Repeat 3FRs/HB1_A0003279.3FR,Y,285,CaptureImage,
/MLP Library_working/Wheeler_1895-1900_Canadian Irrigation Survey/1898_/Stations/B South/Repeat 3FRs/HB1_A0003280.3FR,Y,168,CaptureImage,
/MLP Library_working/Wheeler_1895-1900_Canadian Irrigation Survey/1898_/Stations/B South/Repeat Masters/MLP2009_10-6-W-98.tif,Y,190,CaptureImage,
/MLP Library_working/Wheeler_1895-1900_Canadian Irrigation Survey/1898_/Stations/B South/Repeat Masters/MLP2009_7-6-W-98.tif,Y,169,CaptureImage,
/MLP Library_working/Wheeler_1895-1900_Canadian Irrigation Survey/1898_/Stations/B South/Repeat Masters/MLP2009_8-6-W-98.tif,Y,286,CaptureImage,
/MLP Library_working/Wheeler_1895-1900_Canadian Irrigation Survey/1898_/Stations/B South/Repeat Masters/MLP2009_9-6-W-98.tif,Y,183,CaptureImage,
/MLP Library_working/Wheeler_1895-1900_Canadian Irrigation Survey/1898_/Stations/B South/Repeat Tiffs/HB1_A0003276.tif,Y,184,CaptureImage,
/MLP Library_working/Wheeler_1895-1900_Canadian Irrigation Survey/1898_/Stations/B South/Repeat Tiffs/HB1_A0003277.tif,Y,288,CaptureImage,
/MLP Library_working/Wheeler_1895-1900_Canadian Irrigation Survey/1898_/Stations/B South/Repeat Tiffs/HB1_A0003279.tif,Y,287,CaptureImage,
/MLP Library_working/Wheeler_1895-1900_Canadian Irrigation Survey/1898_/Stations/B South/Repeat Tiffs/HB1_A0003280.tif,Y,170,CaptureImage,
/MLP Library_working/Wheeler_1895-1900_Canadian Irrigation Survey/1898_/Stations/B South/stn.log,,,,
/MLP Library_working/Wheeler_1895-1900_Canadian Irrigation Survey/1898_/Stations/B South/stn.mlp,,,,
